[
    {
        "name": "OnLevelSelect",
        "trigger": "level_select",
        "level_nid": "2",
        "condition": "True",
        "commands": [
            [
                "wait",
                [
                    "500"
                ]
            ],
            [
                "move_cursor",
                [
                    "5",
                    "2000"
                ],
                [
                    "Ide (5)",
                    "2000"
                ]
            ],
            [
                "toggle_narration_mode",
                [
                    "open",
                    "1500"
                ]
            ],
            [
                "wait",
                [
                    "500"
                ]
            ],
            [
                "add_portrait",
                [
                    "Hayden",
                    "MidLeft",
                    "",
                    "",
                    "Middle"
                ]
            ],
            [
                "narrate",
                [
                    "Narrator",
                    "King Hayden apologizes for being unable to spare soldiers."
                ]
            ],
            [
                "remove_portrait",
                [
                    "Hayden"
                ]
            ],
            [
                "toggle_narration_mode",
                [
                    "close",
                    "1500"
                ]
            ],
            [
                "overworld_move_unit",
                [
                    "Eirika",
                    "5",
                    "3",
                    "no_block"
                ],
                [
                    "Eirika's Group (Eirika)",
                    "Ide (5)",
                    "3",
                    "FLAG(no_block)"
                ]
            ],
            [
                "wait",
                [
                    "1500"
                ]
            ],
            [
                "transition",
                [
                    "close",
                    "1500"
                ]
            ],
            [
                "wait",
                [
                    "500"
                ]
            ]
        ],
        "only_once": true,
        "priority": 20
    }
]