[
    {
        "nid": "Fimbulvetr",
        "name": "Fimbulvetr",
        "desc": "",
        "icon_nid": "Anima",
        "icon_index": [
            0,
            4
        ],
        "components": [
            [
                "weapon",
                null
            ],
            [
                "target_enemy",
                null
            ],
            [
                "level_exp",
                null
            ],
            [
                "damage",
                13
            ],
            [
                "hit",
                80
            ],
            [
                "weapon_type",
                "Anima"
            ],
            [
                "weapon_rank",
                "A"
            ],
            [
                "magic",
                null
            ],
            [
                "uses",
                20
            ],
            [
                "weight",
                12
            ],
            [
                "crit",
                0
            ],
            [
                "value",
                6000
            ],
            [
                "min_range",
                1
            ],
            [
                "max_range",
                2
            ]
        ]
    }
]