[
    {
        "nid": "Heavy Spear",
        "name": "Heavy Spear",
        "desc": "Effective against armored units",
        "icon_nid": "Lance",
        "icon_index": [
            0,
            15
        ],
        "components": [
            [
                "weapon",
                null
            ],
            [
                "target_enemy",
                null
            ],
            [
                "level_exp",
                null
            ],
            [
                "damage",
                9
            ],
            [
                "hit",
                70
            ],
            [
                "weapon_type",
                "Lance"
            ],
            [
                "weapon_rank",
                "D"
            ],
            [
                "uses",
                16
            ],
            [
                "weight",
                14
            ],
            [
                "crit",
                0
            ],
            [
                "value",
                1200
            ],
            [
                "min_range",
                1
            ],
            [
                "max_range",
                1
            ],
            [
                "effective_tag",
                [
                    "Armor"
                ]
            ],
            [
                "effective",
                18
            ]
        ]
    }
]