[
    {
        "nid": "Horseslayer",
        "name": "Horseslayer",
        "desc": "Effective against horseback units",
        "icon_nid": "Lance",
        "icon_index": [
            0,
            7
        ],
        "components": [
            [
                "weapon",
                null
            ],
            [
                "target_enemy",
                null
            ],
            [
                "level_exp",
                null
            ],
            [
                "damage",
                7
            ],
            [
                "hit",
                70
            ],
            [
                "weapon_type",
                "Lance"
            ],
            [
                "weapon_rank",
                "D"
            ],
            [
                "uses",
                16
            ],
            [
                "weight",
                13
            ],
            [
                "crit",
                0
            ],
            [
                "value",
                1040
            ],
            [
                "min_range",
                1
            ],
            [
                "max_range",
                1
            ],
            [
                "effective",
                14
            ],
            [
                "effective_tag",
                [
                    "Horse"
                ]
            ]
        ]
    }
]