[
    {
        "nid": "Iron Blade",
        "name": "Iron Blade",
        "desc": "",
        "icon_nid": "Sword",
        "icon_index": [
            0,
            4
        ],
        "components": [
            [
                "weapon",
                null
            ],
            [
                "target_enemy",
                null
            ],
            [
                "level_exp",
                null
            ],
            [
                "damage",
                9
            ],
            [
                "hit",
                70
            ],
            [
                "weapon_type",
                "Sword"
            ],
            [
                "weapon_rank",
                "D"
            ],
            [
                "uses",
                35
            ],
            [
                "weight",
                12
            ],
            [
                "crit",
                0
            ],
            [
                "wexp",
                2
            ],
            [
                "value",
                980
            ],
            [
                "min_range",
                1
            ],
            [
                "max_range",
                1
            ]
        ]
    }
]