[
    {
        "nid": "Iron Bow",
        "name": "Iron Bow",
        "desc": "",
        "icon_nid": "Bow",
        "icon_index": [
            0,
            0
        ],
        "components": [
            [
                "weapon",
                null
            ],
            [
                "value",
                540
            ],
            [
                "target_enemy",
                null
            ],
            [
                "min_range",
                2
            ],
            [
                "max_range",
                2
            ],
            [
                "damage",
                6
            ],
            [
                "hit",
                85
            ],
            [
                "crit",
                0
            ],
            [
                "weight",
                5
            ],
            [
                "uses",
                45
            ],
            [
                "level_exp",
                null
            ],
            [
                "weapon_type",
                "Bow"
            ],
            [
                "weapon_rank",
                "E"
            ],
            [
                "effective",
                12
            ],
            [
                "effective_tag",
                [
                    "Flying"
                ]
            ]
        ]
    }
]