[
    {
        "nid": "Killer Axe",
        "name": "Killer Axe",
        "desc": "",
        "icon_nid": "Axe",
        "icon_index": [
            0,
            5
        ],
        "components": [
            [
                "weapon",
                null
            ],
            [
                "target_enemy",
                null
            ],
            [
                "level_exp",
                null
            ],
            [
                "damage",
                11
            ],
            [
                "hit",
                65
            ],
            [
                "weapon_type",
                "Axe"
            ],
            [
                "weapon_rank",
                "C"
            ],
            [
                "uses",
                20
            ],
            [
                "weight",
                11
            ],
            [
                "crit",
                30
            ],
            [
                "warning",
                "True"
            ],
            [
                "value",
                1000
            ],
            [
                "min_range",
                1
            ],
            [
                "max_range",
                1
            ]
        ]
    }
]